Case #1: 197
Case #2: 3009
Case #3: 0
Case #4: 105
Case #5: 35
Case #6: 30
Case #7: 12
Case #8: 16
Case #9: 3
Case #10: 7156263
Case #11: 0
Case #12: 168
Case #13: 5
Case #14: 1730
Case #15: 132
Case #16: 57
Case #17: 8293552
Case #18: 203
Case #19: 6744808
Case #20: 4
Case #21: 6234753
Case #22: 33
Case #23: 81
Case #24: 28
Case #25: 0
Case #26: 7734388
Case #27: 662
Case #28: 2712
Case #29: 94
Case #30: 0
Case #31: 1029
Case #32: 92
Case #33: 5844124
Case #34: 362
Case #35: 0
Case #36: 132
Case #37: 225
Case #38: 58
Case #39: 31
Case #40: 4
Case #41: 119
Case #42: 284
Case #43: 0
Case #44: 1
Case #45: 107
Case #46: 228
Case #47: 0
Case #48: 405452
Case #49: 1
Case #50: 210