Case #1:
0
0
0
0
1
Case #2:
3
0
5
0
4
5
2
Case #3:
8
0
13
3
6
1
5
1
13
5
7
0
2
11
0
Case #4:
0
Case #5:
8
1
1
5
8
2
3
1
3
7
Case #6:
0
2
1
4
3
13
1
11
0
9
12
3
13
1
5
Case #7:
3
3
8
1
4
13
6
8
4
13
0
1
0
5
2
Case #8:
0
0
0
0
0
0
0
1
7
Case #9:
0
0
0
0
0
0
0
0
0
0
0
Case #10:
3
0
3
0
1
Case #11:
0
0
0
0
0
0
0
Case #12:
2
0
0
2
Case #13:
6
0
7
3
2
6
1
0
4
Case #14:
4
13
0
11
3
2
9
1
0
13
2
1
2
1
10
Case #15:
0
0
0
0
0
0
0
0
0
0
0
0
0
Case #16:
0
Case #17:
0
12
5
6
0
1
3
13
2
5
13
7
2
2
0
Case #18:
1
0
0
13
2
4
6
1
2
0
2
6
13
0
4
Case #19:
0
Case #20:
0
0
1
12
0
5
4
0
0
5
0
2
0
0
Case #21:
0
Case #22:
13
9
12
3
13
0
0
7
3
1
0
10
0
3
2
Case #23:
0
Case #24:
1
3
3
1
0
Case #25:
0
0
8
12
13
1
5
1
13
3
1
1
5
1
6
Case #26:
3
0
5
4
1
0
13
1
4
6
12
4
9
0
13
Case #27:
5
0
1
0
0
0
0
0
9
6
2
Case #28:
11
3
6
0
2
1
0
2
6
1
11
4
0
Case #29:
3
5
12
3
11
1
2
12
0
1
2
3
4
8
Case #30:
2
0
13
2
0
5
0
2
2
6
13
12
1
1
6
Case #31:
0
7
1
3
2
12
5
4
9
11
0
12
0
3
Case #32:
7
4
1
0
2
2
0
1
7
Case #33:
9
0
10
3
4
0
0
7
3
0
1
0
Case #34:
13
3
0
6
5
1
0
3
2
12
3
2
0
5
13
Case #35:
3
1
5
0
3
2
2
3
12
11
13
0
3
6
13
Case #36:
12
2
13
3
5
3
0
13
0
2
0
2
5
1
7
Case #37:
10
4
0
0
3
0
6
1
13
2
13
12
11
4
7
Case #38:
12
0
0
0
10
6
0
0
0
0
2
0
9
0
Case #39:
2
1
4
1
0
2
6
10
0
4
13
0
4
0
13
Case #40:
0
Case #41:
0
1
6
0
0
1
0
2
0
1
1
11
7
Case #42:
0
0
0
0
0
0
0
0
0
0
0
Case #43:
0
0
0
0
0
0
0
0
0
0
0
0
Case #44:
1
0
5
4
3
0
9
13
3
8
5
0
0
13
6
Case #45:
4
7
0
7
0
3
0
1
0
Case #46:
0
0
0
0
0
0
0
Case #47:
2
3
7
0
2
4
7
5
0
Case #48:
0
0
0
0
0
0
0
0
Case #49:
0
Case #50:
3
6
3
0
1
0
0
0
Case #51:
0
0
0
0
Case #52:
0
0
6
0
0
0
1
2
0
3
3
4
Case #53:
0
3
0
1
4
4
Case #54:
0
0
0
0
0
0
0
0
0
0
Case #55:
6
0
7
2
0
0
0
0
0
Case #56:
5
12
0
0
0
12
0
2
1
2
0
1
6
4
Case #57:
11
0
9
3
5
4
13
2
1
4
13
7
0
1
2
Case #58:
0
0
0
0
0
0
0
0
0
Case #59:
1
11
0
0
7
0
4
3
2
0
7
2
0
Case #60:
1
0
13
2
1
0
6
0
0
3
13
0
2
3
0
Case #61:
12
0
13
2
13
6
0
3
0
0
7
11
3
3
3
Case #62:
7
4
0
5
1
6
7
1
2
Case #63:
3
1
0
0
0
Case #64:
0
1
0
8
1
9
12
1
12
3
5
4
6
3
Case #65:
5
0
10
10
3
1
0
8
2
9
2
0
Case #66:
0
0
0
0
0
0
0
0
0
0
0
0
0
0
0
Case #67:
0
Case #68:
0
0
0
0
0
0
0
0
0
0
0
0
0
0
Case #69:
0
0
0
0
0
0
0
0
Case #70:
0
Case #71:
0
0
0
0
0
0
0
0
0
Case #72:
10
1
3
6
0
0
1
5
10
0
4
2
Case #73:
0
9
0
10
0
0
12
6
6
0
0
9
4
0
Case #74:
0
0
0
0
0
0
0
Case #75:
0
0
0
0
0
0
0
0
0
0
Case #76:
0
0
0
0
0
0
0
0
0
0
0
Case #77:
1
7
2
13
11
3
0
1
5
3
13
2
1
0
3
Case #78:
4
0
6
6
0
0
2
1
Case #79:
0
Case #80:
2
5
1
3
5
1
0
Case #81:
11
3
13
1
4
12
0
6
5
1
13
2
3
5
0
Case #82:
0
8
13
12
2
2
1
4
0
1
13
3
0
4
7
Case #83:
1
2
1
0
2
7
7
0
3
Case #84:
0
Case #85:
0
Case #86:
6
1
6
2
13
2
3
8
13
0
0
5
1
0
4
Case #87:
0
0
0
0
0
0
0
0
0
Case #88:
8
6
0
0
8
0
0
0
2
0
Case #89:
13
3
1
13
1
0
5
0
4
5
5
3
2
0
4
Case #90:
3
13
11
3
1
6
0
13
1
3
5
0
1
0
2
Case #91:
0
13
0
1
5
5
0
0
10
4
8
9
5
13
5
Case #92:
2
2
1
4
0
4
Case #93:
0
Case #94:
3
0
0
0
0
0
6
0
Case #95:
1
2
8
0
5
3
9
4
9
2
0
Case #96:
3
7
8
0
1
1
2
0
8
2
Case #97:
0
0
0
0
0
0
0
0
0
0
0
0
0
0
Case #98:
6
0
0
2
7
1
0
1
7
Case #99:
1
0
2
2
Case #100:
0
0
0
0
0
0
0
0
0
0
0
0
