Case #1: 4
Case #2: 3
Case #3: 3
Case #4: 6
Case #5: 9
Case #6: 3
Case #7: 3
Case #8: 3
Case #9: 3
Case #10: 3
Case #11: 3
Case #12: 6
Case #13: 4
Case #14: 6
Case #15: 5
Case #16: 5
Case #17: 7
Case #18: 5
Case #19: 6
Case #20: 5
Case #21: 4
Case #22: 5
Case #23: 5
Case #24: 4
Case #25: 5
Case #26: 6
Case #27: 8
Case #28: 4
Case #29: 6
Case #30: 4
Case #31: 6
Case #32: 4
Case #33: 6
Case #34: 6
Case #35: 7
Case #36: 5
Case #37: 2
Case #38: 8
Case #39: 7
Case #40: 4
Case #41: 5
Case #42: 3
Case #43: 6
Case #44: 6
Case #45: 4
Case #46: 2
Case #47: 5
Case #48: 5
Case #49: 7
Case #50: 8
Case #51: 5
Case #52: 6
Case #53: 6
Case #54: 7
Case #55: 4
Case #56: 4
Case #57: 3
Case #58: 5
Case #59: 4
Case #60: 9
Case #61: 4
Case #62: 4
Case #63: 5
Case #64: 6
Case #65: 4
Case #66: 5
Case #67: 3
Case #68: 5
Case #69: 3
Case #70: 4
Case #71: 4
Case #72: 4
Case #73: 5
Case #74: 5
Case #75: 5
Case #76: 4
Case #77: 2
Case #78: 3
Case #79: 6
Case #80: 4
Case #81: 3
Case #82: 7
Case #83: 3
Case #84: 5
Case #85: 3
Case #86: 4
Case #87: 3
Case #88: 5
Case #89: 3
Case #90: 6
Case #91: 3
Case #92: 6
Case #93: 5
Case #94: 10
Case #95: 4
Case #96: 5
Case #97: 2
Case #98: 4
Case #99: 4
Case #100: 3
