5000
32477 79668
37443 63623
69742 27124
20155 89816
67244 28432
70223 63519
51279 82329
25194 86665
3499 70648
21075 95381
77625 66777
9516 44767
28060 47448
42913 58488
43265 97622
45874 46244
32737 61920
95393 92927
31882 69852
15386 65520
4105 89254
40217 66636
38154 61147
42703 93868
71675 2567
94176 11909
60777 83694
43441 42754
33530 84907
57344 82979
33943 40059
34747 11169
5156 37267
73120 56322
35878 63161
98310 14609
36509 63027
51071 16172
42379 77419
34206 34048
84606 1121
75595 89106
33945 33429
82319 46625
52926 4787
32292 98629
18954 82192
5350 51930
20485 90629
40895 94339
94949 46846
76391 55019
12794 57474
43616 95377
18807 8397
28608 48930
57927 63962
98250 63328
41652 70779
71099 88285
5653 39181
7131 81231
77124 64967
65139 58552
37286 41554
7321 39462
46065 69238
41697 57760
3610 32055
67323 84019
7813 76933
55587 66163
90732 38067
14099 87150
84118 51606
88188 35515
99902 29699
40618 23251
1467 90664
38405 33880
57307 26312
58581 30913
59735 63306
36209 98676
97656 13485
48723 90075
66783 2323
75622 13979
4592 6331
50450 74553
6764 835
1827 5828
78725 1823
55956 55571
72473 53539
57048 30439
85121 83967
32686 10703
7867 79903
43751 1248
28513 63775
98368 36836
60914 40606
19719 35312
2326 15014
73139 84670
90746 86630
49396 69644
2080 94714
59195 48558
24238 62517
20946 87515
24063 21446
57156 42804
36340 4270
21891 68126
83685 52858
76868 78115
85772 14667
84668 10872
13259 17573
64070 11388
3482 19628
2003 89353
92198 53678
91998 86437
58023 89912
98140 76696
52415 15560
30785 34027
35519 65916
9383 97884
43687 13108
36754 45952
48838 61634
83597 51690
48119 36263
74684 95407
33905 43439
1776 15
37640 48011
42932 38640
21627 7218
16052 49207
79309 77190
84926 48253
57914 75140
96762 12149
25810 74217
48798 5840
96171 38042
76091 42515
77501 24841
15591 11637
49436 49691
91180 40815
78301 36589
10397 20025
24210 5922
18997 76748
80778 92874
16928 29015
53910 92417
44645 43011
70893 44422
6314 30392
95546 11749
51945 20482
96273 64434
85941 35714
5725 70677
75837 95895
22887 89851
76283 60772
67170 28908
46970 35631
72550 69179
89364 86078
48103 22704
4956 34361
61712 32635
204 84429
24863 28463
38659 4895
2718 72650
54674 52829
48039 76493
80973 31598
39535 87502
45552 73794
92943 33692
84115 42685
64526 36866
29397 14991
79904 43524
86381 15022
46470 93750
8726 51379
639 14280
74629 12225
37230 51962
17754 46222
60620 44903
48995 70723
32782 13113
68849 67862
67679 21407
21842 41760
30958 85261
58298 50836
63784 15434
41354 70059
70329 59814
50504 6164
17566 63322
55850 41799
99639 74127
65670 48948
26638 76009
83908 22916
11033 42679
51601 86753
92841 70951
2041 44628
42210 72763
51565 74989
62696 71676
42433 9399
36228 23749
12415 54178
39919 8404
18072 77992
11388 56432
40608 71609
64944 25791
9603 42189
92058 82429
36383 29581
81127 69589
63852 62159
76715 78380
80705 16436
74292 24734
34771 18984
36595 49852
69543 71685
85134 68533
39092 85262
14847 31817
64022 5981
17100 6994
70872 77748
68470 66179
22486 30386
7438 17346
1598 18567
92067 70490
27828 21219
49511 6575
62584 62403
46154 58646
90266 63796
1907 68727
37607 46123
35240 68717
42470 95295
45015 90546
45707 56325
79779 37858
87361 49385
81721 37257
55242 64993
53303 69022
36027 64218
32784 45701
37625 6992
81313 4512
97042 32645
84050 97099
70270 31794
74718 29055
79348 5114
80426 24440
25953 50479
99939 73307
5214 81584
30891 14554
5286 49611
33683 24484
12928 27577
94086 25335
46822 30266
89354 61990
18981 93771
91464 38921
32295 15538
65063 93623
34078 39712
32206 54811
42431 17688
49510 43952
92560 10983
84320 25709
23413 91553
79755 12429
19228 54413
13152 47173
62194 30018
90768 15074
89532 33405
96071 30121
39786 46916
12647 99644
41762 51927
69000 49212
76775 99491
53428 15563
59110 3710
87156 72438
7331 32867
856 60040
37740 13166
33472 43882
86508 74361
61653 90408
71991 40904
73573 49634
19329 40373
51690 93740
47563 79998
41205 12267
71877 72738
31525 84970
29463 36523
36108 62340
45362 60519
1204 58855
54078 27937
20774 57377
70527 61320
49220 59020
52067 7872
59866 95162
30158 13899
7697 92591
24466 39596
42757 63468
95985 67716
26537 4173
44561 53909
85651 74952
10213 53621
66429 16684
16817 36210
1610 42926
84232 60254
84679 30634
80059 24688
73702 49101
81713 10182
11644 18431
65803 301
3797 70996
86721 19945
83466 866
54298 7697
93927 92695
88963 95007
83075 92144
42027 2071
13784 29572
13191 32637
60543 66747
23599 5554
36204 61340
49688 79444
11170 9323
52407 87144
73310 54171
36813 4014
31478 13067
57233 75587
26082 75737
40040 78535
72622 58891
75232 4551
20456 2992
46341 78844
29289 43595
28987 12495
68263 28631
66515 76678
90836 64416
92240 97237
32594 26977
12529 76714
14087 52588
37714 24478
89304 7104
17313 77508
48556 57922
15058 83663
56474 25383
60449 85182
60779 43991
24173 71579
67601 57765
96205 59265
55756 15712
1304 3030
42493 96381
13476 28780
42163 28982
5974 32122
37347 64754
34019 5836
17681 83732
26315 4128
93042 90643
22939 86361
57190 29348
20530 7772
10419 88005
52715 48686
97068 79161
57591 71773
37417 51740
97748 86227
68133 1434
343 46617
97810 60041
87998 22191
28507 79124
70691 80895
94558 42774
12955 72785
99972 28132
13881 97159
69193 9464
51771 59066
35545 36295
77696 65699
43900 6723
71506 28092
83855 20979
54243 27415
83988 47304
47088 56865
69165 4331
53043 81766
90442 81614
61299 364
9611 63541
62088 77161
5488 62193
6477 50131
92343 35861
49998 51062
78449 39677
64156 81511
75653 77255
1941 85223
47909 72921
46116 35186
29551 68105
3231 60647
41062 2147
35154 47408
40104 16776
54590 3468
90311 61273
39249 59700
3761 82555
98626 94211
92185 2950
93766 63374
59510 16697
75424 7793
19228 88377
33370 78881
92706 30654
97518 97236
61266 92725
67649 21855
56867 12820
37837 25992
41774 53997
13169 27116
14829 63403
91162 68584
63899 51906
60509 47459
58509 29343
53100 97021
2656 74165
51155 48523
32845 89857
7225 37990
12247 42514
38051 33240
68849 70227
55957 60761
31801 98391
89635 22127
33392 45305
45323 74265
1992 44328
62215 69398
24712 30411
53411 63849
22480 78654
75837 64730
7547 88652
93942 32570
25689 35130
99662 81808
2397 78183
54463 62398
90228 20660
9604 84726
66098 84471
64247 78420
74315 65433
58792 19615
71703 68555
34001 59589
85068 73267
50197 61920
45051 78222
24169 68208
17427 76998
2992 61564
72702 77017
44260 19161
75862 75705
48433 49058
6856 64924
57960 75634
96135 56458
68699 53375
28675 20906
79580 78216
15852 74068
34914 53725
52423 87497
6632 22470
11538 57401
88418 63490
88369 58202
47692 3658
72543 35681
33153 81226
73089 204
67161 21353
30778 47796
3506 69115
21491 76810
78728 52358
41287 29467
71710 11046
31320 38458
86956 97373
66704 93806
86716 96808
6443 6711
50586 23966
54911 11870
9802 46895
51347 68219
21093 24967
30370 43459
45928 16230
23288 93594
63128 59741
26005 69292
60706 92549
76561 83022
75246 36518
44764 28883
46246 37266
72169 38074
97084 2925
50518 97473
65574 90214
14746 50423
40906 98363
78803 51774
376 86261
10147 97614
78389 6877
99048 46363
21972 15773
98879 47472
84080 54655
82254 55567
61028 44901
97748 67726
7146 75927
76522 72475
90951 82601
44518 30768
93578 41538
73936 7918
70966 19965
87609 81366
84101 48856
61805 57275
4704 49104
70347 93237
89794 27941
97761 14017
2369 14556
115 5482
18055 7120
15894 32952
83818 16948
31110 34953
61879 61167
25453 56840
48080 60739
5225 89964
75884 98443
96188 73342
37204 79470
7784 7523
24286 26853
71645 13279
64518 19606
99379 45001
93406 90991
37770 94328
93505 60044
19309 70426
79470 17321
70773 118
71732 12599
44567 94213
60135 57685
37881 53455
51642 2581
85897 95145
88337 36592
15100 29480
74877 39501
60457 46639
17418 85079
63909 24627
89074 40176
76666 23444
56613 88488
11909 22571
73584 94200
97920 24596
46556 78973
93508 29111
21173 85772
30305 62646
24413 98419
60929 21380
35327 64390
92200 62849
64277 76498
26744 54833
79159 76277
89097 15690
58401 92824
78437 81746
10049 73801
51085 86637
73647 97289
71613 82363
84382 9214
1165 44741
56490 64219
768 60190
87194 92828
81970 30852
51940 34269
1498 52698
86531 96702
89160 69051
32438 94979
29181 4247
97022 29899
93589 48497
62951 96680
82635 62376
4804 25617
23003 39094
41177 31977
68118 21572
97179 74663
65872 66216
76478 42724
8747 91738
67125 45516
47496 74365
64998 47007
31038 20352
20017 48735
35634 26170
56258 11115
57312 34996
23257 6626
79729 98837
98284 44770
61108 71043
91279 18201
85596 70654
89847 14695
25605 99798
41134 24550
80297 42223
23919 73649
64462 82947
8303 28456
45090 18444
12464 47122
89062 43651
59759 87055
53800 19154
45217 239
56391 3169
99821 78648
99739 38423
13024 99723
46782 74226
9286 24755
11053 60188
10107 16179
87526 63414
75648 87586
88748 88530
9013 97144
67784 27276
19774 11314
51494 53271
5014 51527
40591 43932
22644 95761
17328 38043
53990 78631
46637 47183
63475 31799
44313 5174
48023 52797
96745 81631
41269 53309
73212 16819
2331 38219
5386 90934
24819 62070
29499 28550
24861 8845
51462 36273
534 15079
83874 82005
92749 93022
72634 22110
1357 14873
50495 67495
31480 63994
56545 35982
32946 13287
63659 46150
63882 94717
33132 34601
14260 66587
93904 63391
26257 53031
20908 48711
48375 89560
92693 99144
29191 67101
38081 10823
59693 20257
5857 6439
98897 66121
34978 23148
34105 72685
57306 98529
5056 66112
23681 90403
1621 94994
64282 15551
61678 53762
15966 27606
17149 24148
62992 77732
35463 24212
11969 40542
86079 99512
72537 74684
24401 26294
36782 69367
9962 37051
53550 37055
98466 79636
45900 60681
24177 83865
78472 8025
32570 37105
8585 81105
45944 90292
25591 71702
67564 4332
5964 46434
77380 16317
98104 83318
32067 54413
35823 93006
35499 85547
11384 95717
62659 17300
34601 13851
80147 2653
537 24485
46033 99385
17225 83824
37221 68009
66884 29995
48766 51751
72710 95575
22758 14445
35017 12895
47683 95148
46966 32243
47456 3703
32111 31528
98444 13239
9 36053
84649 97741
64246 77280
48490 12565
77164 86422
68776 10730
13257 47506
20212 24893
68282 28635
46584 59435
22921 20690
26810 38610
14069 33312
48894 94061
63938 56767
89967 5452
16714 26852
86571 9850
94298 76710
29079 56413
89221 7712
35744 81577
64588 974
83172 53597
87667 15853
73470 3323
74131 32277
38947 98727
69650 84404
99923 27924
42182 3291
28403 39323
30032 94435
45527 74209
84668 3639
81593 96610
76873 571
51510 35307
60729 59009
2119 73357
83345 85714
92473 86263
9032 85780
93730 73632
53322 14088
44913 40433
25390 9958
87203 74454
64779 23177
1801 67981
74536 81172
48989 28277
95713 10363
89515 97056
39248 1166
47296 15907
93187 3844
61602 21270
85045 94867
91029 59633
94118 48454
35662 55187
21728 11781
75350 52458
73160 45336
75126 68535
32719 11665
5184 38676
19295 18055
67190 7167
14944 249
68947 70669
76812 99792
23825 97902
65320 55899
73622 63678
31894 65634
47914 76412
86573 12699
58237 93357
49006 56694
34806 16189
97253 75276
87322 39398
36797 38484
63731 34866
89760 22791
76594 93465
96283 95721
20412 13241
75996 65747
81976 63371
86679 65396
15950 84678
81641 23031
57304 36774
23376 81540
14828 90616
1372 22935
97759 38529
9740 34436
4692 43013
87752 865
94769 99180
54832 23484
9133 55103
87508 26235
34551 82131
21334 68832
8220 29989
10300 38149
69402 44728
73664 67435
51848 23262
50954 24006
27273 25051
38034 23005
48656 56375
19784 46284
67515 24177
77678 93798
93932 96127
58943 88794
82977 40008
99544 119
26443 56156
62680 21881
22435 36002
90878 21615
90677 67448
4778 98946
3077 49723
29738 15995
58374 96836
93645 66003
14331 4505
49938 9602
56295 84335
9994 92855
68648 85625
99835 83076
15036 56315
21989 13469
65508 9524
18684 82546
52144 17561
55820 79476
7367 84053
94731 4674
64718 72507
6856 4569
74026 86167
10738 27487
14160 73871
57175 58730
53918 96306
21426 4787
71809 20114
85294 86062
57542 9082
27528 3164
34080 95653
35629 85780
12999 16487
13405 61691
7154 88992
81376 87297
59334 42724
35376 24414
94867 58999
36807 48225
17139 49294
51603 54921
8383 42945
66958 88530
76726 95538
52607 79489
77654 43210
11347 85439
8333 42637
31460 47058
24478 25927
46762 57921
57737 51074
63725 47176
24560 23279
35502 62410
97537 92367
70490 80068
65657 5543
6825 36329
10820 87565
93514 45456
38116 75345
68635 70226
8435 50014
36473 684
61736 43943
49979 71154
31590 60685
29926 54897
80720 92455
96897 98099
7029 63609
52719 223
37633 43786
54700 42658
66258 9041
99345 29858
78255 76638
49537 50693
63651 96618
92144 56126
84109 5836
44394 48468
58848 33801
69513 96611
66268 22488
20932 45104
4065 22815
16958 53494
46851 99536
97727 78764
26865 12158
32976 41451
86099 42129
25543 25149
90042 42260
35006 38243
84846 85620
3509 34855
25114 1629
25695 30801
56108 66325
27409 61510
11592 73514
41941 38237
97149 54887
34844 61041
25339 17869
67048 17768
54630 29867
94273 68565
63371 76628
52595 34112
24097 17418
28612 28597
88553 23819
79178 58393
84652 20091
82921 50478
29536 57866
90858 5020
65222 39204
17386 54361
10453 88512
74464 90310
15083 69712
53304 65987
27130 68891
3985 87101
10641 91881
29766 93096
3033 56992
36761 26513
55512 93616
6952 61271
61607 90639
19242 50619
7998 21975
27327 31111
54716 46762
87879 61588
66079 67429
90859 35900
14206 30466
82865 36709
51990 28731
851 53306
88627 79404
41143 91220
47310 65308
12326 64759
2021 6483
59278 75135
77927 65390
3430 53251
47328 18516
58397 60167
22628 55020
82107 54369
2473 15059
15367 24824
43549 55215
6240 22848
29012 13629
94704 86881
30661 59773
88009 92232
19445 89940
60326 69135
37802 76925
42192 60894
94035 45261
77629 85755
99541 75940
98452 22537
13427 54286
55976 63132
59784 61302
12245 25282
94821 78215
79805 94983
18753 97456
7988 1525
65796 28640
55639 87755
73385 82902
94373 8628
27539 98947
41475 56368
86589 40499
32708 77380
97401 73836
62947 64205
15680 96539
14063 3851
65090 76463
96524 77799
31175 75425
74725 80822
49793 27749
3547 39804
45274 49345
76199 97448
5244 57068
27852 56697
95750 36108
72088 28745
65641 89138
41284 58659
54035 39556
19338 66936
1419 6688
8121 35456
10632 39463
75451 21932
75088 46659
46863 61571
73808 35550
8672 1176
3406 16772
91633 96297
69661 70927
39153 63009
92631 11162
39202 3162
53560 15280
15592 96153
34436 65553
54249 98871
44859 92865
44183 78932
29097 63188
49294 85477
46111 8623
46676 19194
39043 55794
43724 40595
82813 10822
59841 92747
61000 47605
46887 42453
52127 43881
20226 19449
83126 68815
5696 42421
60880 75054
28416 46546
42623 52197
38630 53073
40262 97081
13240 8866
44599 35203
43420 2970
17136 35728
13342 67863
43485 33828
81957 3252
99847 47411
52714 76949
83780 80314
35766 35081
25508 88977
83491 81877
83600 58203
17806 69064
64802 15321
95485 72795
7236 69471
99725 26381
2082 92154
21870 77153
51686 43826
10257 76786
56112 11997
41552 11361
41996 87456
65607 76985
73453 57420
23263 26198
76178 66968
72940 82287
54064 97514
64584 20856
95430 29944
70428 15925
32792 24673
71425 23
88058 17622
30744 48425
66578 74975
37935 4239
39523 45641
76072 90039
22472 199
5721 30820
24879 26811
8211 68486
22204 81696
79912 99273
72092 20571
30130 30510
92949 64745
59221 17171
24052 21533
86326 93812
48008 11559
8598 75150
35882 60252
97406 44362
52388 33746
26320 46280
20102 5419
81189 88326
70789 30162
77495 79539
18777 77366
59213 27462
22549 73352
65333 29458
97609 23100
94777 88131
59249 81120
42947 1182
5591 41585
7541 98021
77520 28682
29060 16380
78174 5188
63162 23276
66110 97713
20940 92419
99067 77524
65358 54219
15931 90427
49533 71521
44706 18065
17920 51879
92628 10264
42072 85337
30556 50166
51212 69038
40135 86936
37259 89300
69893 46798
31794 32957
30924 31987
6893 58571
97472 97995
19608 76488
65349 19760
72203 76869
68533 36758
62591 96278
89930 76361
83279 84567
14644 77915
29706 82430
34919 27126
81580 34855
46857 93175
866 23563
15477 40646
76649 32073
84810 66215
91614 4106
25335 4149
13409 40553
40537 91492
87370 73560
6849 73244
10998 28042
68925 44947
71939 48600
87845 32316
9547 18709
48322 88006
4141 27477
57386 79565
85166 33685
47186 14422
35900 71118
17666 29907
92885 87535
19941 50778
54677 74382
1657 43413
11070 23733
69230 57444
21084 89610
50819 93784
81211 97099
94618 54253
23976 91531
97286 32718
11334 1724
34017 31518
62832 76552
78791 52699
58937 6548
81501 34551
96812 38467
28154 17294
34931 87397
37892 77927
63023 87540
20283 43441
6283 64839
42515 22061
92543 95489
37743 74600
71399 34030
44720 65877
82659 75101
33283 31001
46201 99627
56422 5830
59592 46640
2967 94206
1706 31381
71991 63987
99687 50358
63818 95388
69039 9834
57071 95203
86609 22942
98512 15791
38759 26670
76731 98903
73655 38889
35223 83262
57294 65433
83444 87954
36043 93832
12226 9883
36331 48977
8523 65969
91972 76325
83189 65939
51426 72402
8467 63788
27441 80494
78776 68347
11651 48956
87371 76438
62133 47504
14382 25706
39290 87965
29878 25748
95141 85736
82009 3175
42361 9937
74964 36769
90412 98110
89203 3179
41940 68409
42714 242
11362 44451
49255 37859
88393 77360
85866 19507
22116 24824
52668 80485
46307 84486
98103 73599
94639 89157
62077 60905
79730 63955
7483 19683
43761 88506
29761 36791
73051 4017
8624 9170
169 74408
70746 98879
45021 64800
83197 29049
33028 53364
33203 24433
60597 34470
14025 13683
4721 80327
10121 40029
57884 95521
31085 95074
8851 97666
75352 18092
50293 75501
81860 7738
20789 43061
2732 46906
10656 2467
27931 46223
44879 41684
95326 82043
55844 4985
85576 73412
35687 33287
6292 7022
30518 74315
7032 22533
5938 7163
23981 77952
85848 27724
48662 73510
9317 588
94653 41580
38785 87435
57737 19957
86056 52591
42769 35636
82963 84183
59760 8216
2951 71064
89763 23293
8293 97831
41213 54032
45844 67003
82085 27598
15828 12649
29238 39091
9491 27615
39215 49815
61836 10865
99222 11215
75042 2064
91537 2306
44379 61509
66564 59766
97334 45078
15362 31147
28566 47039
45832 6085
24630 42742
96675 99589
54836 94026
98523 5933
58891 63141
2579 74595
85669 99948
59257 27534
11573 87099
63061 9408
43681 50097
63107 23936
56544 306
17315 34383
34632 94330
18603 12751
74084 65968
17709 2510
18907 77166
63937 22374
87921 18353
92238 25864
57267 54790
27087 85364
5439 2443
29798 96287
21728 51287
1888 77198
55935 98800
41400 5405
49097 66358
90286 74400
82383 5328
68950 29082
96062 79549
79881 11931
29167 68444
27230 7988
17613 39633
25356 85519
28529 98807
57135 88291
87606 36339
36233 665
84196 68980
3336 29761
76688 13008
65458 5410
66664 97403
11792 86894
21894 72241
61423 79018
16154 95607
67346 6422
49244 99320
2924 47616
65296 86374
69986 5319
27531 52730
75850 85425
41141 32541
29801 73863
9385 96711
7740 66582
89181 40813
74187 96466
5491 7765
27735 50108
73105 29689
99384 2135
72852 61442
11967 32274
14812 25485
74438 46739
52857 91297
96013 47165
90780 9269
81603 48327
46375 51461
3407 1143
66019 82724
71316 79685
29828 25841
19108 98216
36690 90095
2184 91806
33048 65976
16989 90224
96453 14957
3638 58955
74327 73504
16285 65162
33141 14228
37054 71281
31322 2217
87871 39711
75287 51379
20430 26608
98966 43099
31532 95131
96006 86556
82595 68019
33423 93806
15662 98226
25451 70497
46174 10244
76469 82988
45558 18606
87971 25901
18728 20790
53408 56604
20214 46292
130 60794
71932 88848
5906 36147
35517 23711
32195 27208
86546 13889
3990 67042
38643 15692
71682 49659
98858 66352
34039 27333
68632 18313
12142 17914
24995 4603
39203 20329
15311 44837
94532 3559
98768 71706
61399 8164
518 40802
43445 52824
97441 55045
83907 59641
69129 24984
29563 16573
26566 45653
10727 2738
80113 53470
60708 77167
47137 74974
65828 65712
47484 99484
26088 74815
51795 45855
79152 12909
98497 53337
20618 76089
76521 72854
34613 69899
56222 61223
31929 93903
40106 70037
60334 87439
12826 57965
22382 91999
84547 40073
32780 7894
88232 65312
64695 24670
79540 39271
81242 8855
73645 22705
89204 19740
1722 71867
54541 18001
10161 82544
20495 92010
97637 28935
57082 62718
76183 64117
77573 43084
67040 65040
67595 67583
71786 56004
57064 45492
53987 54389
8105 23759
62674 24527
53322 34442
40752 26593
9755 95140
65680 23068
14687 78991
74037 89673
94515 21036
73588 35607
52903 84313
10019 97168
52452 41295
3343 95208
86307 77163
79872 96605
2845 38586
55173 43805
93772 37829
7013 82357
84937 8027
27155 49782
21879 93017
42828 44335
70924 23780
69851 52887
61499 30076
28097 83318
35207 54672
75048 29013
85488 48679
44085 29687
33993 77811
68695 84395
66594 71541
76751 3898
85333 85630
54331 38063
91719 17186
22553 43143
85180 50924
99293 69545
31640 68072
75506 30094
9593 59245
13480 9137
27553 12893
24231 8522
21811 4343
17915 18820
480 29165
7965 77162
39140 10689
88165 82613
13070 60121
64935 19105
52540 66591
77354 58644
22127 93047
80490 63376
77766 15557
74213 94228
68707 73192
34657 83825
23084 19501
18698 76437
88525 20822
44145 78056
61575 35358
12556 83473
53149 44084
532 63943
83857 65314
45712 13686
85530 3532
70998 11607
18060 53445
73376 32095
54993 17972
22260 48218
88338 49819
69501 6134
77746 84521
94626 26284
27495 88276
64403 25982
23381 28574
47405 52259
22949 40735
95538 38
84385 4068
70659 40662
26523 86901
32908 83156
26251 27667
27964 37702
88988 88792
31508 71999
19509 75273
32338 4714
49257 80192
18985 59630
1254 95770
13926 36281
93201 2257
87264 65196
10539 74948
89884 14054
18324 98748
24153 60538
523 95477
75240 59034
53712 37067
78031 84328
35516 46843
15271 20245
82931 73273
70872 6557
35577 2205
65720 15410
85905 93659
81392 72841
86102 2844
14474 88428
57613 56990
20673 94195
65352 76606
29532 72618
74145 16622
8425 14179
15066 30604
98095 87194
68608 45840
81811 87806
53879 59991
59116 49432
1785 71360
25523 5268
6844 68784
80722 25778
17938 4339
59995 25416
96678 60299
92523 68948
17672 57080
76785 94805
14692 18128
46687 18648
22152 16936
6779 22710
65506 66185
15319 91714
85468 70228
53757 57246
39723 23745
72556 60519
74964 85065
84866 51191
70639 31489
21075 31047
77107 24528
43279 87853
45511 97086
63808 9684
70459 27070
22659 24305
83183 70459
42834 53048
74173 76211
15206 81073
44707 91458
79055 37489
41442 86021
7703 12754
47771 451
633 61459
53470 37779
95433 72163
32421 50958
1910 77539
89403 82072
48376 45628
59485 14024
3805 64617
48821 4646
66915 44087
16734 61394
50747 73884
62146 15818
16583 95370
84286 66034
58155 38707
6637 33810
30754 46627
46405 64269
83601 78773
84056 53744
80263 35915
27591 10455
78135 7199
81886 98287
82059 53493
94028 72228
84324 40356
75658 69008
98223 25958
24131 79879
27265 96289
92894 69637
45786 94285
68316 76161
97624 18351
37351 84694
84470 49588
58007 96246
27503 43802
41530 74364
82206 40307
6930 37746
93545 32061
57510 88673
47195 69766
28644 82193
55746 69795
96618 73257
48013 66900
55326 2643
20577 40514
45323 86765
80358 28877
11631 4707
49195 60843
36441 86659
81299 54085
24437 44988
88819 13014
84863 41714
56744 84734
40061 65164
63472 93896
26491 36998
68976 34117
51608 94261
2843 90121
59502 9642
73310 41553
24889 42059
12263 29683
58404 27883
28801 32295
50488 22779
95651 19603
10849 69030
9987 68925
94833 69898
31652 3910
93369 39963
75171 47258
7637 79976
99879 65438
50307 43060
47069 15757
7938 77005
13811 17889
30307 97326
37808 60254
39962 51949
20606 39303
93080 19326
3146 40820
62725 26545
10907 74464
16565 88301
82508 15241
55389 29899
33776 95906
63837 27435
57809 70444
10115 25885
94885 81767
35401 67012
57684 92604
52992 67016
16524 18714
91380 68677
26515 91257
60249 17610
3114 32279
95144 33171
6612 48588
48155 65884
3968 37935
54248 79361
53163 61715
45889 87167
66610 27649
30884 36863
99352 65214
73789 36105
8446 97566
20603 79343
81760 45643
38363 7719
17051 40744
19866 49304
35133 54838
42415 29361
55856 34569
90598 35934
48900 28500
72248 56854
73656 7969
53214 17005
89834 2612
42105 6795
57722 61908
8357 10284
39772 37581
59214 97112
43651 88801
39615 983
60427 38275
79652 27765
45174 82550
61623 70895
17453 19513
63685 94594
76332 36830
73984 66438
62219 31081
3597 67418
3900 78345
66991 88652
80849 47169
19131 34886
82164 4045
37503 12373
94893 46560
22259 69072
16526 40828
95117 76515
62794 66066
94543 8232
83201 13030
47244 24708
67303 59478
894 99480
2608 93827
28830 6358
22110 7277
67040 79344
95325 64304
6575 58179
17554 88960
65414 49051
48801 42013
81629 20533
52016 38100
23305 55960
96177 95062
31394 16340
3905 55040
89097 83853
83013 49222
19501 68030
12907 88897
60561 92528
44152 38231
88725 43917
79971 17188
51797 32906
22623 67297
85762 23974
89768 69475
28796 23186
31487 37007
92475 50211
8390 45122
55380 43518
89622 90137
52196 53302
49016 20652
24903 50251
9979 24187
46510 4889
78819 17018
23386 21541
96036 48224
57316 40269
61984 61719
61026 7795
2371 48476
20474 81197
65172 33492
84133 9911
77949 69381
53627 9823
148 35826
16933 42684
41271 85802
15580 74722
58444 24717
76176 30642
83441 7411
55908 42827
13977 25274
87673 60680
529 91662
43738 2041
25321 47827
47737 21218
43920 45926
22854 82304
98070 93157
60395 89001
13489 19004
54680 11750
73757 52108
96877 63410
19846 5631
97125 75790
57486 14940
67454 8154
45951 56729
83804 70677
16448 42726
98730 89815
83691 93309
67489 24489
91928 38494
66820 52366
14539 63007
46497 80777
92945 80140
38602 65012
45117 86927
95061 69111
67987 91088
50184 72712
8009 43602
35803 26884
76187 82371
14111 37780
51964 15099
86873 90753
2797 16259
13069 87449
75240 13600
84302 30456
23709 37499
82170 92111
79483 17284
86875 94098
82122 19319
85436 46589
54378 13808
51036 87967
19884 52027
40224 34008
79189 64256
98297 20841
26932 88961
77265 48323
4389 29196
70800 88306
24722 18157
2439 29990
34456 30190
17210 16475
90927 14304
14211 78418
92872 47458
63038 53934
32248 47023
98480 71731
18133 15802
14168 20867
27739 9332
15911 26272
37290 18329
73517 92956
88932 9979
19549 54451
76157 55716
5206 3602
21155 96522
66643 14864
1323 77113
42640 4389
85709 59692
41009 42831
20298 27129
27659 67755
80361 79387
56389 73715
40473 34590
58951 17527
93414 39058
55510 92998
20879 84320
38725 62480
42421 27435
99974 64495
99732 80860
85635 23542
63221 4712
16066 48566
70129 20653
73380 84242
38720 87204
78231 12182
52414 53161
34589 84143
88688 89015
8409 13972
35490 92065
11584 95667
73018 32198
41947 54249
95710 42936
37504 39385
23532 16687
33123 3843
40288 77825
53942 40352
39175 45957
28425 7221
34997 71143
86576 22709
20203 33178
64730 98344
80822 85188
33937 98537
3072 23419
78556 15099
39163 91287
89259 92344
87905 78950
56935 93269
16369 34813
21115 44382
92181 87841
46448 75581
72627 17243
60766 37777
50583 64276
35628 97224
96365 31423
61379 63475
77631 69982
62359 57748
30313 15760
98327 94345
15415 29680
31622 54612
46278 60019
86554 45041
35944 58899
99893 444
74452 20726
4589 64648
80002 7689
31912 82712
3200 77464
60162 65410
4466 80367
30543 36612
13569 76790
10420 30405
5046 6153
15615 82844
85934 94317
38725 88309
53972 12332
36366 87840
88460 95070
91996 10811
27614 7134
16318 99045
54008 43661
31038 31375
66936 527
47227 8406
58834 80526
25572 4195
16186 91939
75083 92760
40065 1806
41473 81742
87815 89243
38697 24603
66289 94599
56532 99043
47634 21943
36627 16937
7594 35342
36034 73500
33409 10130
43041 85206
62213 26871
20541 12250
55267 7687
59239 53739
58364 83769
20482 88611
80888 23839
69115 17732
89210 15636
66507 60014
2706 35529
79155 48554
29154 61460
82849 56004
44178 41073
26902 24847
2730 4741
76906 9488
34973 12289
10333 67019
44315 49172
40005 2001
12064 27367
14348 48110
32237 18551
39251 59505
83628 1227
81258 63327
99986 30200
63769 55907
44439 36843
27858 50385
67022 53377
5601 76737
65737 8051
15402 247
50200 53928
47236 41086
10860 2878
88913 70291
403 66153
78528 26764
99306 3627
6538 72839
30604 95986
79008 50291
7271 92763
89450 95313
56494 61466
35490 80021
17960 48995
17321 95996
25145 6964
11129 34515
6069 65299
45916 95667
16772 77043
71313 55332
44326 84063
64430 28733
81867 3276
62450 5856
43715 23239
84598 5869
66257 50396
75703 32144
96472 17731
69539 2853
89049 79296
66373 18907
10079 94348
12798 2287
67529 84211
97850 70605
33851 92482
15525 62701
9125 8745
53472 6187
91454 54711
36517 67177
24078 73047
38137 53140
7299 33983
73951 23849
42703 95329
23255 18889
57188 61417
79162 98247
60187 24618
11028 15373
87617 79714
90410 43895
40774 42501
5621 23218
95894 46125
64181 69825
85644 95521
83884 99375
15223 48645
38745 46606
91054 56571
19634 32280
24438 40074
13168 87202
57374 30586
28958 79509
10128 68704
21547 66465
84040 54755
92106 64070
34894 73432
99908 38025
5916 50724
54458 31339
93175 65090
87102 52324
10606 22085
7119 99743
37395 12829
48033 69762
35976 65822
98513 51518
12098 31829
66045 22659
11045 34987
54864 12509
77122 5655
3109 78384
79574 1483
77170 35847
16949 93848
2104 48253
82254 66366
77912 55998
77718 81175
95490 91651
68732 87753
76530 49604
62233 20426
69848 55398
17277 57939
79696 45152
4362 82226
33549 35106
38612 14096
35916 21973
3219 91323
55210 31979
35292 34163
45612 70113
11463 67837
54040 51200
38801 82790
29212 11720
61953 22053
72363 53431
71848 85281
57943 95633
52412 27963
94672 61384
31661 89749
40714 27418
13277 78687
8779 17199
15512 93404
39372 43815
64675 93859
32809 96558
58530 44022
69388 5252
34701 31065
93084 97238
48287 77561
29870 15133
70735 11837
15509 68197
89042 8038
15862 96831
24759 15699
52646 82267
65178 81479
89578 10381
69690 9885
67424 5104
88067 18488
1548 23081
71523 16114
29615 40523
27976 39076
67360 52868
37402 17864
23808 5576
4763 90747
24179 62696
73764 30329
67535 86561
27270 16737
38576 48806
84701 99890
30972 56895
12351 36151
77633 22531
76480 49629
16805 22531
26157 45622
2684 85251
3068 78037
83447 45449
99565 20960
45261 14174
50527 24182
25550 46294
68724 86845
73665 48792
92721 36451
57030 62735
17962 45543
34209 33916
52516 4077
65568 98941
15968 91432
17403 3885
78421 87504
19161 22330
77488 39025
20699 97371
70503 94257
16642 82132
60117 67566
50702 34299
27427 69293
86466 56596
76814 23557
84370 26321
71427 97820
94400 67617
99356 86630
2139 74356
77313 68394
3452 19573
21995 93882
54785 89224
87981 56193
47982 80878
74972 58607
33727 96357
30102 62804
23742 40088
63390 1588
10053 76700
72060 83995
59930 62723
75971 14100
90295 88021
72852 10166
75116 52104
68630 85822
57346 96283
10884 87262
66723 78708
38315 23552
2985 43839
95692 54628
14697 32149
57321 2418
36910 68156
73934 60163
21205 6507
59197 48533
35864 48084
71728 20406
86181 71610
84509 81961
81781 2057
43199 67643
53013 19765
44180 17473
75946 93698
18538 44922
43611 72078
41589 7508
66791 81335
44365 19238
80613 73927
38407 32455
98452 61682
67677 45648
68932 95260
44547 92045
17720 91990
9638 12608
21586 78842
65289 11703
17887 70364
21507 65745
95731 66497
76057 1271
15983 13149
58065 81706
40494 86410
73755 83275
66491 29367
74940 97785
76780 9836
69015 57801
42972 61570
64340 63069
26693 9076
38939 73630
64958 96132
98262 70103
41895 54098
19400 25700
44766 82928
69504 61009
85259 50277
16688 24528
56652 27276
12674 59061
2427 60552
86513 87128
59676 18892
37959 97485
34190 29497
31909 14307
70070 80580
96398 73520
24936 63636
94490 20322
69073 14152
38116 69434
61743 35310
17689 37581
81721 48525
17635 58512
57998 78104
47554 94872
12593 73638
56267 66581
54588 8814
44122 9614
73184 49690
44022 46435
6747 88897
14904 18272
4798 19364
75575 59777
70704 76378
34618 43320
79700 29782
66026 16518
57222 78154
93392 99659
89689 15711
98567 55191
78553 52056
77029 84104
18687 71025
16229 16499
3350 89424
71733 59037
52647 85010
52274 65217
77190 60350
4642 87166
84828 78400
64494 52159
45432 38874
76110 76646
26863 62239
31628 20592
67612 32464
4699 89708
27545 81486
33869 23452
8351 3175
72545 45289
67270 6674
56067 3422
69326 5709
47637 94299
76196 24139
71746 55094
51376 66941
24249 7079
41344 53936
26291 64897
15530 19857
40049 13344
56588 35461
38611 64029
2592 45319
46197 79534
75217 45639
6093 71296
96700 84118
8755 4106
54332 64994
51049 60883
66842 17405
75581 89948
53316 62800
7139 12308
89762 17559
57354 82934
263 28701
93546 27826
24194 31917
22635 16040
35756 2308
18473 11965
47036 20009
28564 89399
66607 80849
58996 15273
59758 16193
82470 79531
7777 16115
81078 85245
83896 64719
9738 87354
20615 12589
26842 23065
89648 16957
25082 15576
144 83106
95899 72618
64024 58702
31446 65175
56171 918
86982 64871
59501 89938
66184 96090
24213 40382
41824 93539
91034 86975
72551 98828
93953 44213
84280 85377
77532 2974
65938 53174
93984 86711
94704 55448
13112 18383
88872 18011
9475 18685
32728 94494
68101 4970
11179 8696
87913 99837
84076 19772
90252 40871
15700 15762
20802 56561
49286 452
68155 76501
96178 45963
58713 5305
33045 26843
55242 75694
49223 76011
30013 71214
71335 93027
50784 76015
34270 83735
56632 12085
47969 23287
64252 95937
75674 8204
27095 38949
72730 28932
1863 80568
14387 79008
76338 83708
17904 74982
51677 94349
38848 2734
79756 78138
8336 80817
33722 514
72129 94343
13480 99779
16657 33980
90533 52352
62840 78519
3318 34682
52163 13023
26924 32377
82526 51306
74851 179
66628 17517
74283 65795
25692 43751
13107 56245
99281 28976
61035 30301
46516 3435
66470 20603
38785 51245
38979 49063
35956 29863
81694 65689
26353 51311
22734 92798
10880 18410
94004 46065
82772 73557
46202 56400
48535 69179
74214 170
70350 27139
2140 85653
4269 50707
16507 5278
97126 43761
39764 41531
10782 18044
54287 69982
44930 67852
95646 80302
72361 7024
72694 18037
70055 62550
43881 20977
94504 46835
44512 11286
78927 87049
70389 45783
54545 19686
20084 72388
71250 18364
19075 92854
95774 2740
57570 64086
39383 56563
31957 62727
81781 46979
28798 87136
14977 25243
76160 15686
30006 58009
97926 2991
51607 90997
44411 99402
85224 13070
53793 11502
37611 69258
74120 30922
45071 27396
98581 73851
76054 4643
83669 42847
86341 10718
94712 51162
91240 35666
34389 62766
93025 98701
9016 35220
60939 11839
71497 71090
70015 82679
56833 20668
9104 38330
24456 6439
32167 8998
98303 25796
37333 87714
83225 41159
48579 13424
52069 32339
38158 1897
67719 62462
62209 85705
53144 17936
46117 10511
82308 91239
33623 1903
99806 66781
17857 35157
16226 82938
39847 37222
98180 36661
37103 85124
42178 89527
63869 49901
94730 11090
55868 44102
56578 45561
98597 86158
98168 63000
58088 79115
17314 20434
86512 33197
45373 51928
71559 72393
98410 29879
20844 18860
53581 21693
68804 95398
51938 11391
64093 94143
87303 11982
32699 17314
36036 34695
15870 26146
36886 2919
12938 70833
89444 82026
53691 51301
10267 30306
54925 49148
45558 35943
74107 64420
3803 20701
19111 48426
21797 30729
22096 65750
49557 40112
7423 7343
66789 40399
41985 46005
84425 87556
57293 28538
63166 44171
16070 7628
73651 50059
22095 50428
4229 61386
48942 99210
43352 95983
47533 36199
23401 51714
531 25938
40510 22353
4351 87742
489 3715
31289 90250
91723 45050
99626 2343
89091 96113
15902 56902
65834 95348
72961 36925
61968 15105
78669 25472
34271 6046
65134 2481
461 67859
13921 67081
43275 94865
91058 65923
30958 96790
83193 91847
66668 69536
72830 37250
41485 67711
63605 6249
58135 83709
99612 80110
40357 14162
62601 23475
14125 79350
42807 85199
86323 17416
30693 45621
29145 2288
79075 80576
77180 77749
41225 89898
3470 5946
47748 30298
62472 46386
5434 32575
71208 29313
8800 31744
69783 49592
20121 89680
25877 20544
77220 5408
82288 63827
77316 58013
21036 76911
52529 64559
25753 46070
76964 88338
21238 44343
10495 6710
43874 2871
47399 59202
34562 57899
91357 70903
53428 96304
65046 81514
83060 92660
92069 20341
65592 18165
9503 45628
48292 17309
83368 71096
32623 24006
16124 22608
73991 17352
61267 42933
80233 68577
49076 5562
17483 61892
43111 72548
85281 15565
75037 86842
70356 94501
13081 49945
74068 95821
26683 49862
89024 37078
96067 95202
38313 34967
98926 55836
42061 81955
74755 81932
4259 76691
83645 2194
84230 49137
80518 52829
93620 80341
62655 38479
44721 4420
16292 85771
45333 17126
5637 49835
76056 17231
4933 43863
59740 98965
6388 70499
83848 26614
491 94819
47765 82045
33649 97672
44275 84333
81705 77106
94728 18144
32550 64360
79808 7940
6085 14415
85988 51454
66888 55667
67456 71402
96456 11942
49952 60482
50148 66337
75257 45343
82163 93782
14519 26896
51464 59275
76047 70918
43222 88094
26025 74113
72756 57312
75306 83811
50900 6141
46750 38251
72958 65521
90602 19507
31849 44379
84022 65055
70371 47151
36789 85848
88893 91590
1793 71323
10848 78666
60544 2924
29770 47085
89798 72273
20253 31251
34560 42933
17119 1350
15182 206
85482 20218
31156 88867
60047 82509
27038 20760
77657 24249
83927 59436
58291 24441
28588 96328
30316 7441
17642 71702
72286 75662
59273 6299
25124 29264
88171 87149
51926 21893
51524 63714
46150 87092
32768 81240
77150 69861
45508 13379
6516 78841
95673 43980
67677 71426
46480 68247
28231 34816
38936 39662
75417 72468
71092 81039
47549 27404
74748 33553
49010 33700
25649 91916
25286 34511
70817 87020
35191 26714
27608 14038
68278 92671
78393 59846
58412 16055
53643 44345
73194 13682
95508 75194
90212 84917
20032 53043
10690 6934
15004 64362
24417 15183
32448 40873
17072 26012
83991 80727
61662 92215
39994 60610
13820 19392
78247 60113
35121 21194
3263 48712
55160 47785
57469 83775
67491 11120
61820 46929
90390 72001
80731 19800
27877 47120
85878 26464
92026 61593
2505 14385
46999 62086
99586 21483
86818 40371
8161 14337
50817 70691
86392 61222
3416 90739
59650 62852
61479 40501
9963 96531
1065 84029
64902 24925
69189 89582
51585 44972
85761 11955
64969 48667
20555 60188
70034 87552
76649 50426
3984 83301
86262 57168
57882 13246
96295 24129
5521 34491
86851 23059
83270 76353
24169 36422
59882 85800
19088 74620
21386 48778
94860 39659
98224 2594
89565 43493
73899 27223
62867 5413
66869 92998
84697 62344
21274 69246
73946 45921
95382 90386
77537 34133
41094 54027
83019 89920
88948 26796
66419 4581
28113 76125
74507 83566
18954 49530
95825 24319
41292 16498
9355 15146
31045 2442
62735 8578
53843 97133
93734 88531
86433 98021
16629 3346
34826 44238
60483 20594
11934 64192
64001 84857
94556 63005
89484 63896
43769 84938
49453 99495
78809 2624
89669 33664
3566 98204
33210 6115
29499 19368
44756 54601
70641 38394
80168 8660
12553 29354
42184 17967
31120 48057
991 78540
38540 67668
41145 871
85773 63900
67529 89168
7423 56652
73333 92675
4468 86344
87944 91842
552 32388
2658 71076
71863 29199
69980 94116
99413 30832
41816 97777
1977 89724
7678 58555
80144 59585
99977 67669
19516 5020
95471 96134
10814 48901
5621 24242
503 23504
13243 8562
47755 67935
94708 6396
34013 4640
91927 25256
12458 60386
21269 25884
55927 51528
57509 65830
138 51815
92401 47044
34743 28462
91831 6098
36881 3173
59451 70490
85905 67945
75460 88133
36739 4162
60649 16700
16890 97014
11421 32934
99081 26448
94275 70129
31638 55962
48441 89835
78189 66880
37767 85772
62700 53305
17943 78889
60531 49315
53790 771
76119 16571
93328 43896
45499 16766
48351 66474
32125 25144
67354 63451
84522 16831
24207 27719
24251 89562
59669 64656
18809 65538
86238 61679
68050 90023
45140 42387
86709 41547
25938 33413
16021 10264
99989 92009
63098 80830
47795 50890
85570 99478
9256 14977
84194 4076
48191 44951
19930 3382
28584 25754
45456 54465
36164 44256
32934 34955
32392 30036
91895 48045
16682 86228
47185 36617
34824 82896
95018 35992
924 34959
5327 84584
18618 53879
76861 64183
24197 4839
76186 24760
77194 2869
44434 96810
10468 46327
95153 97978
28220 36056
84190 32014
11833 90041
4346 74271
66268 83703
70027 41261
9239 58785
71025 57399
32280 85776
51769 35763
76681 87324
54379 83969
36538 52719
59396 64968
37222 972
88128 85448
59798 15962
84483 32169
10085 18837
23192 28661
57594 34570
59709 96665
26595 28319
36473 98017
86658 69584
34882 96607
97708 4466
97259 47401
52023 97620
8432 93353
27822 25984
5000 49840
86 12644
48986 93772
14716 75735
52649 92193
89698 77101
66396 38154
55093 46495
30572 91110
33116 60072
95279 55087
38206 25501
85231 54301
24447 40302
80641 88151
95028 57268
35266 65169
35510 5874
79763 93123
38618 84805
88973 67466
45306 74733
42373 9859
84879 78309
68551 91369
99801 68084
8878 80623
65094 68615
12428 91995
81899 8557
10331 15844
99414 59632
89139 70436
25604 49170
47396 54940
22825 36352
70359 72259
41246 61416
52152 71004
46973 40047
40384 35763
37789 29263
76914 68245
39281 24860
26572 1801
39022 84668
62887 40187
71523 35431
65152 91119
53860 57449
8726 22803
53495 81410
88198 96736
44400 46398
51242 93259
7685 21574
80827 45036
75880 22805
45607 23517
31386 58982
32028 13139
67428 26614
42278 43351
85795 73232
72967 84990
50585 90547
44990 6497
67971 57353
10740 17429
71321 67093
28532 17635
98687 51532
39224 50690
69537 61809
67296 45292
81148 55862
56691 66237
46046 94136
86829 31937
47872 29868
18191 70726
30066 39194
41507 66748
73201 59629
41537 50599
46228 29206
90491 49052
59864 55382
55793 52905
71332 94440
90880 5698
70405 25149
62470 53884
45221 62618
68472 30398
87769 12680
78541 20050
5232 49236
41453 20892
6800 92171
79471 23356
39348 99673
76240 50394
13602 30398
47301 93675
56860 92566
70689 99131
49005 51530
11255 35994
35638 15720
60860 45128
21755 25755
2785 80810
874 7533
42852 24084
39655 54047
33956 3412
78208 97780
45163 85593
1315 2489
97551 12313
49835 56707
80493 19624
94940 30280
28315 61128
38451 86695
24340 26581
50031 77290
72678 56632
66186 37803
23125 37399
61150 29459
57848 13967
40462 19168
39771 14609
59621 95628
56351 10467
44975 82588
20374 76340
34273 95097
9025 97822
73695 35976
1811 50002
70153 65839
77267 24247
88759 90995
23808 95986
16659 44445
19659 66173
29831 2374
80630 51127
68112 48829
13349 96982
87435 37013
21357 7515
88693 72304
63734 90020
40053 19972
16143 11627
5784 41193
31687 2913
53726 65943
73580 4032
78282 14397
43112 39362
10388 66414
98286 88064
49676 53214
17395 32639
5042 91393
57669 10079
74384 31613
43730 11045
21819 66666
63573 11549
80292 7271
29915 47947
62968 42571
33773 98937
43326 19441
3014 48923
68955 98135
64957 1441
48646 23093
70283 64739
29357 59591
25059 86206
99517 85826
212 31059
27341 46852
10832 76562
48915 4722
34519 9126
35083 94939
89854 72847
14701 63316
58573 16650
35443 73101
76956 54837
25543 18393
30613 40417
87400 16418
40297 98189
8433 30835
14629 26149
9712 58822
15807 62873
70017 10535
99020 50964
16231 65854
75408 28631
95777 86657
66950 21949
78375 71626
95474 5646
67570 72341
98228 35548
43127 65419
94375 2513
98358 53929
28079 9386
80223 21787
58601 74825
69106 81455
64463 92304
81944 63815
52759 85277
64161 44709
84553 4150
98060 11018
58553 67684
25420 79420
98998 23581
819 97540
66507 13746
18530 68578
89743 66356
3904 26069
70406 42206
51697 50363
96182 72250
78468 23484
60681 58148
49524 97577
31163 31090
49539 97240
86854 67876
79730 79021
66107 87314
77188 88529
49418 49635
38498 48509
89235 93516
18173 53425
60375 16136
43427 19
36815 84128
48444 65450
51563 38102
44892 69192
26514 2141
10491 13111
98697 54725
54141 95599
59566 31311
92987 39617
16925 20253
54466 5037
81250 24941
91287 1292
79069 13751
82213 76733
12593 76779
45673 7552
78987 57559
99195 632
97986 90589
75384 67424
36914 55763
36323 49376
58530 19039
34079 50352
42682 6784
31020 34746
38749 41391
94667 26465
75733 11816
5844 42610
36340 68128
79566 85631
52412 82220
61300 40593
3847 29672
2187 41972
46593 92917
43348 84493
30043 19389
82473 65649
54810 22315
90011 50284
41801 50609
64328 41307
58342 20310
35742 99725
95095 45997
2844 42053
5505 48580
4768 82221
57424 34552
53437 43303
22690 61568
4744 30075
93546 16442
19740 31492
13827 128
15650 35388
69890 87550
12131 69259
4595 13298
49910 14299
60864 17575
73797 90991
98786 5846
66146 72392
2735 17850
46149 26640
53765 42887
19271 45542
77884 22060
77756 69145
37304 64569
58600 33341
92347 90694
96666 61114
16328 26615
66592 47426
12417 20302
41709 9526
8213 533
96280 86518
81963 86784
38892 26038
4773 45153
41627 44526
70713 48251
26382 48082
68290 24435
96801 79976
52318 83978
83261 44933
56700 64376
87364 96115
2395 65623
4869 68512
14251 34432
85796 72925
58452 86746
61757 61795
8073 23342
43114 79961
92911 72104
33325 47067
48579 81357
93830 58647
39786 61783
98352 7488
75599 7199
97575 47745
92128 16840
18283 75187
27653 89767
24047 54392
81162 43799
14889 12017
5088 88739
73071 9027
96746 41520
37866 78774
87156 13806
11260 19252
24908 16588
50226 65391
32682 1315
7886 23338
84744 21247
64819 90525
25641 28523
27915 32317
15080 69990
26826 57075
76600 93142
16196 18688
1706 77997
64582 63771
14059 48421
49249 47522
8124 11220
46581 65864
91775 14533
76652 54788
9101 75531
15011 89110
89605 36822
13311 34589
62536 49050
21590 87612
66013 21143
53023 38374
82934 50150
51924 34580
77190 58997
24908 92524
39393 50147
15883 62375
84873 12416
34316 30836
30932 99136
91828 76337
80268 51637
13005 49722
78318 68947
2494 77100
48748 26788
11134 42498
66266 71880
95953 74186
87001 99602
45160 42827
69744 99906
36948 45874
61234 56638
59480 94008
62072 57772
78901 63595
83493 41256
8788 15519
28099 36260
40736 46717
17934 18430
75713 15994
86841 50173
44613 80876
20498 98576
5417 39966
42004 45120
88019 31090
75479 52879
29968 51539
72050 43228
18898 84540
99758 36643
11029 75941
41344 63498
29262 12646
94645 1638
90114 9519
56515 21673
5117 78214
23123 16772
65334 24235
92335 17687
96552 57164
22685 63134
98745 83590
97285 76528
71346 67908
5155 30780
82780 47896
69643 72594
76829 48616
99340 58302
19223 4601
96517 34037
71777 26748
45863 59119
47097 51025
33519 92564
41509 69502
17010 50759
55083 54265
98440 37522
70089 74412
61812 40733
79099 38533
86497 82717
52593 45838
99987 13439
84893 22996
73844 75495
71177 38600
79167 28020
34302 79358
61211 39341
74364 61162
55337 18334
62754 69118
73769 3785
12429 11484
23148 51948
87652 10454
43351 96637
89360 24684
37779 36830
62853 28901
63442 26774
16509 69421
87265 355
2349 89819
37368 1802
21684 95842
20374 47381
26550 83123
4168 85778
68028 97406
40054 3059
56949 83574
1615 31380
44760 78755
37280 34775
54894 82533
35555 56704
2579 16696
31748 232
87655 63130
66207 46634
30478 95112
70231 54302
21485 93600
92868 23567
3172 79675
86015 8665
9862 30870
63498 93105
58492 65006
81231 66673
86960 88170
96135 73220
13713 22454
97104 48997
63442 31971
19492 49206
17194 97473
68693 63529
59995 50224
33262 8753
75865 92628
73774 96539
26049 35035
79152 49649
7 13828
15546 53229
82421 26227
92272 79361
66596 23166
99312 95950
9600 95885
66950 10862
21144 34950
66091 26248
31051 26847
22755 72215
81886 48009
53094 48494
18003 27234
16164 24595
87395 22417
58660 19167
48684 98904
7992 2638
34092 42617
60722 84083
88626 17247
10315 12682
70503 74107
84017 49335
2510 42316
48170 29305
20347 33175
97215 44969
34804 51104
23223 76884
75125 1094
50011 61570
7793 37061
25693 61227
31489 29297
35467 53231
84185 12503
63510 40197
71087 86542
42984 90653
98607 10280
80104 24437
29641 59277
29683 46813
45095 139
89689 72232
9448 68688
87984 52765
79173 28333
19189 85832
63039 84402
45707 8530
25753 12895
39474 29354
30889 42429
43290 94687
74658 631
5500 58061
19856 68363
61597 9816
66709 27339
25183 33371
25717 11259
3187 74279
47755 58853
5516 28643
37589 94659
67500 49577
71715 79720
81453 45918
15323 73918
44949 13358
65628 17904
76869 75232
76571 19870
74574 7025
85652 60339
4331 87630
81991 16782
33139 85314
72830 4417
19873 87249
8719 20884
87047 49690
29402 43351
82527 68320
31834 71323
35129 33969
58498 56469
51851 19817
40629 54907
53382 96090
86146 82256
88831 99847
9610 42372
88670 51202
45444 73256
89135 24807
48973 82892
18541 22365
24673 64964
30422 27916
93622 58682
78702 36437
60330 65790
97133 5671
2934 40563
77645 73771
56910 54587
9230 50015
40060 80610
84250 62282
59354 29316
97855 43861
60411 34151
36355 71742
73466 28373
85402 63524
6383 17960
67555 28711
36401 55350
55386 71381
97189 39395
99176 96960
99180 2214
77647 95187
56332 14334
86849 84214
18042 90621
42419 79097
16253 86033
78018 80439
31569 57752
21675 29884
6525 32567
52047 82187
41142 1018
18102 17525
406 36041
68492 51395
90193 2367
89842 441
13122 15146
56695 59728
10738 17836
63032 39183
56894 80738
65890 27477
32236 27146
92400 45583
65880 322
51454 53394
95042 31079
36350 31257
93967 3753
58459 99366
73607 86981
916 95410
82241 24173
6069 14893
82288 31263
98538 76949
31306 22605
59875 15133
56596 56314
48337 83928
80710 40466
23751 7221
97759 16217
5034 61348
53940 42042
67008 4132
21686 74558
89342 19152
64017 31338
84518 47494
32519 84313
4806 43108
40487 41805
2935 82067
61030 98594
77876 85895
78900 79750
43218 97546
16636 16211
87811 8008
7060 54911
89149 99151
12838 65808
18029 3730
28411 41114
9542 50541
47296 6715
44332 59876
61803 37101
6408 61781
9223 5252
89132 96103
82915 34390
76188 92664
43731 77553
92205 35082
81518 16263
65940 69036
85920 77736
26188 87106
68671 82604
95474 25604
68017 36405
1548 8749
70719 16907
28794 95080
94286 60455
66253 27105
49989 57404
45946 28470
94059 7614
34217 69178
15253 17262
79074 37693
20379 14029
36527 56638
92034 49919
29683 84637
80492 29155
64110 98340
53768 46157
27882 13948
1181 76719
88361 31584
44335 3139
28146 7311
94953 61423
7066 44410
41070 18919
9773 50748
84838 34766
38445 32512
33678 84272
18998 41085
81487 67289
61641 64511
15732 8462
44663 52095
51548 71512
80229 61187
71601 59281
39003 95146
44908 82779
62433 5836
98723 27246
64610 28798
12918 62505
70484 50624
59664 92063
17231 66223
27102 77807
13516 73137
14943 22486
19213 7078
24856 94604
55037 97050
79690 99350
46353 75942
20538 42991
37786 70638
47473 73052
33948 95942
93170 12536
16099 38721
20888 98098
4887 14049
84889 46005
15544 28448
57654 80957
63574 632
90207 73731
9845 81252
97952 65096
44316 83838
95072 31869
50450 57601
13712 13150
71214 2063
15569 64486
39410 8555
32674 12514
8498 25529
61765 40951
4561 78697
21873 32917
81164 80620
32015 80803
44598 65243
77786 10560
61638 29029
62189 57586
85876 77148
29203 28355
45158 27656
99071 18613
19435 39844
74186 421
75829 69604
85064 55702
88768 16748
12787 18383
80369 93509
34617 50799
51587 40646
53767 89536
3044 53270
44520 88240
12403 97195
39783 31463
94604 16242
1757 72288
12057 35696
29990 97858
2358 85997
18404 51016
85946 93749
17318 29818
16115 23604
50864 11540
76218 83172
89423 60837
82852 4088
85140 24020
91170 39183
93494 87971
39516 3402
95211 64428
36014 7268
78308 58232
26006 884
35467 72276
95533 20921
88856 28249
43983 70212
55481 21026
4989 86840
90298 78819
60471 66858
18338 8705
5241 58725
78798 36271
50710 43630
6168 7427
71776 42833
95850 11550
70574 16095
52633 80615
60475 96791
59260 5325
15034 45601
13872 48059
35740 99644
94599 67036
78199 90943
19617 88385
17240 74984
54588 27191
65273 97944
75111 44651
24448 99560
42397 99691
34714 25559
59674 31384
52138 70511
96685 31529
84426 9907
58990 19489
6196 84278
76808 51073
70615 47365
25862 94815
50918 76990
62860 56201
72013 8180
40755 57093
29234 36488
54639 75319
94498 13632
56518 10242
85500 15029
1466 75992
37210 45290
51794 19152
41575 83070
55439 98439
71361 22327
34847 62513
77886 11667
43183 45153
79150 85531
17241 96832
78657 63637
32088 50973
81476 88741
48228 91694
6006 93090
46149 53143
51509 95250
8963 88726
79193 9354
36136 17669
99020 24486
45445 22013
79583 73203
33407 65613
2611 82669
26291 85153
48452 86996
99945 87046
67227 89381
13973 98918
37447 2155
23244 83784
10206 21794
93337 75089
73184 17512
25529 20223
92475 59619
65381 11868
24466 56726
5360 80580
77181 16323
19904 7878
89036 16370
89518 74208
61061 3289
75805 32510
42598 83153
92028 75405
91509 55984
29462 17549
24426 21195
18425 55244
75937 28118
25705 99295
51011 72281
89005 58809
17896 53618
58014 734
79573 53504
753 10058
15929 65918
3195 41063
21751 72670
39120 49673
69245 28348
7579 15187
50049 87999
5887 59563
7717 63390
8973 18155
62380 84119
47954 59439
80548 89942
94404 75771
35829 38837
3664 53373
1938 12705
23636 74048
40524 18888
49818 90032
95344 45594
61099 47692
26356 42824
88287 18730
24876 85949
55633 99821
3579 19700
85324 46654
43189 764
25497 42546
65509 80259
52285 56892
33189 95716
32245 38995
30127 97059
23294 87243
23574 46205
67868 84263
62377 11208
32100 81139
52097 90364
1179 35704
30875 11963
11246 41910
7127 41593
99151 99791
20531 97707
59073 74147
45451 84806
87076 11013
99230 79942
93300 25683
84798 50905
75648 47490
25935 55890
82746 57084
53559 82923
1454 57195
28693 76127
61615 70585
47706 79667
77489 38806
92538 95423
56128 63740
63471 53253
43338 45176
64598 61885
27648 73535
71165 54783
38588 87493
46486 1448
12848 92606
50430 18651
3168 83526
68316 35792
58583 9597
82786 12909
47223 52213
40512 20711
22426 68817
79486 79863
50348 31435
65328 30804
20744 74917
90041 55856
49706 77754
32210 73896
99752 92576
95502 30102
21933 13344
18097 67277
15252 54212
71945 98434
69052 4386
12427 16610
52356 72546
14008 76765
79910 37938
1022 14833
59299 25562
81295 20915
90085 50264
57661 18405
64867 73409
85301 47377
3969 5103
66538 52410
46230 98135
97098 75651
76194 32484
72164 68204
39333 69630
51998 84820
33043 7946
80958 51024
46489 62177
19388 98528
38399 27254
9679 26017
57073 94793
94987 28365
47953 92163
28074 5602
98441 45021
37670 99277
95771 42020
60350 77752
49142 32990
10613 42545
68392 22722
29631 56515
14273 30246
13000 3183
20743 69618
25104 28025
9219 70966
14502 2026
3830 619
58844 85393
3422 59924
52993 96693
22729 13119
73875 362
52606 38247
88224 13347
72135 4345
80831 48376
2771 63625
31700 81581
54163 61786
31852 2284
10551 47156
35917 60640
8738 49700
29925 25402
1559 90639
41935 85668
12526 63200
30223 71270
51233 5081
48150 8448
41854 53910
28400 58913
88816 40589
22712 98573
90716 88382
69529 89195
98806 66021
41251 68590
64694 48287
74025 39439
45858 99764
43335 40820
91037 43077
50639 18050
76030 6010
84749 38229
40291 40666
24741 50770
92169 4828
92419 181
35559 57775
57361 77295
46312 76533
21732 98905
95112 43048
13654 10610
61124 78081
88904 62274
17432 20744
54923 63098
63277 20037
55654 29970
83434 48489
85389 40473
44074 67769
9681 82981
67108 31390
89436 86001
85749 65257
12826 86818
36137 13612
79998 9031
68407 95203
969 26886
82367 66917
23355 79417
4436 40545
63678 53822
88106 82131
3000 35368
41693 85815
70573 5909
13147 13662
16386 68519
76057 15555
9824 70495
83718 48692
7670 21612
30694 49680
2773 88214
27205 88959
61428 27803
19341 86749
83355 23860
23717 1761
78111 86106
84774 31674
51289 17196
65912 99788
31343 41818
94670 98011
28319 53506
83723 56933
53048 50233
6590 4179
20212 39892
21673 87461
68768 53842
8265 91711
42953 1851
90028 40056
14516 88766
74530 91187
39919 27640
29430 98500
90584 75653
61998 20428
97507 98209
76761 99348
51000 98347
57287 77062
51250 18921
42473 81670
73967 46745
41463 73068
56655 84432
38686 55688
35498 15837
33159 60808
68860 85209
5264 39393
94219 17868
91965 50321
97431 46885
5622 90394
83379 43949
37189 90932
76896 26120
4514 3145
48482 47403
29744 91582
37208 23456
57753 44519
35558 63352
20144 32043
42390 86793
93290 96629
36458 92320
25392 34444
7352 23440
13894 20651
36795 75967
91865 42347
63147 70596
58757 15959
29583 11234
60057 77048
83617 43430
34038 92039
52786 92351
50819 9352
84070 29817
50883 25008
54963 66001
38093 21186
73141 54259
51308 5547
76684 72126
51998 33498
59589 72408
87401 96414
53968 42495
77698 79816
30277 50365
156 48587
62337 35448
53676 65854
4248 18699
49661 95323
14957 12488
81011 93390
52691 76220
15768 13651
23699 49787
65848 70212
92849 79557
9829 70653
85177 33338
26755 61650
2447 75487
59449 1830
67953 22026
88213 97861
54303 60065
92344 25711
92261 40689
70748 60793
34961 45230
99655 80532
25676 1583
26361 34977
42252 16984
76090 1078
48556 76177
74522 76295
64699 64612
86098 38821
55919 34934
61690 52169
4301 40110
82763 25528
30588 49096
42940 99375
67655 52396
17384 48073
19727 17282
86128 49661
49423 93840
25034 1046
2708 49986
68863 42565
83810 19581
64896 7573
16623 84845
62198 69445
98270 86460
94787 99862
66756 21948
76482 82883
94702 96648
32741 18393
35518 28981
26477 48237
90261 96860
88486 18555
30777 50276
35104 9910
33882 16662
1131 34847
59083 96741
73708 51143
3798 24857
27657 96230
4270 77981
1346 12290
25300 38104
24641 37320
8034 27785
83831 58225
55892 92319
32250 50817
25501 15586
74828 72002
48253 33644
14115 67405
40718 80875
11678 34039
85429 11744
83316 77883
35951 29971
59374 20012
52702 32061
68385 41913
4577 17737
89125 74269
79523 60755
73937 49984
36785 20857
32668 52936
22688 60965
81340 94960
80908 70258
90161 86671
75015 51485
33392 18825
8729 46811
30845 23272
90341 67637
43482 66805
55594 81096
50434 48646
37646 90020
22007 1387
32602 48313
65702 5555
37169 42839
90701 22460
53725 40071
93820 13706
47374 40495
64917 38900
69589 35213
55287 31477
84784 87865
97086 27019
63776 4253
55200 92443
4696 35466
8182 83751
68619 98022
32239 60656
43479 20621
5642 82573
34745 32566
91082 189
92654 70632
84759 19891
20118 47033
99882 56472
22210 29613
3909 96965
50744 77748
23886 64050
19666 70719
34966 15086
71257 68621
67883 9170
44322 92801
79397 87966
3715 42251
13156 97875
56428 94057
27890 8026
86398 18080
80177 30819
478 16557
50839 55397
29468 10820
70448 89827
58894 72140
33154 61370
94896 30317
53521 99585
46690 18707
55124 36643
53889 78178
90131 62807
71653 27423
83887 60240
70258 90175
75056 76505
40104 77149
57119 71371
68974 72187
97797 71038
41569 75931
25396 31965
1197 60742
58057 78149
71050 22719
76663 35077
23820 66838
89744 51844
35404 39974
89058 53142
48243 85690
54357 34034
53992 73324
42297 88300
53742 43753
76303 18048
9424 59014
90750 85743
9213 99844
43003 88347
3027 25278
56284 30164
6503 87558
7455 14815
99868 47167
26491 32628
93052 66743
58067 31181
62432 65723
24949 79416
7961 65236
42964 97845
92962 79595
51783 70136
45447 75132
7597 36459
4771 54798
46181 29241
59013 14243
19525 27670
46152 76514
43637 66253
81196 82210
93995 93111
51981 10574
89512 16567
92054 83694
57953 13970
65010 60963
1166 60447
2131 25789
79607 80753
93168 40969
57058 86742
32986 96691
40664 2706
89768 91708
20507 51694
57565 95955
60905 51187
31254 83240
97494 43871
87423 55507
96091 91762
45852 31168
90927 65548
64578 40879
57816 76556
4669 80829
43013 19258
405 72693
92795 79260
73054 19984
21781 43087
81630 81926
31913 12346
54063 56192
85149 64018
98718 2842
39464 21392
13019 54454
99553 80657
83587 15118
43049 36841
16503 93311
92146 69873
54951 38492
40613 3335
98344 25108
39621 93277
30153 33794
93220 50062
96348 73021
66339 47984
78979 13288
72086 2724
13094 14607
85179 88158
84096 60186
10163 60210
14684 78940
45653 89413
60643 28714
51842 17100
77610 4732
79394 46331
39854 14393
27064 46125
57251 40115
87928 32013
53646 6538
60199 81843
26597 28410
65548 17565
31434 49331
51152 29583
39414 1608
38166 82979
13186 83099
93917 23063
88843 61735
37532 15455
80650 55810
77901 94263
12852 69625
85413 99648
83317 85147
67571 21735
37491 84807
22075 1804
7560 11806
86940 99455
18256 29687
58174 46371
87019 50206
51724 68069
87183 89990
8459 39196
63240 3816
76280 86020
92580 22360
19024 29824
65424 81566
96925 90205
87181 79299
22392 62577
72097 11590
72802 51759
65035 41074
7923 27354
75293 58425
50211 1098
26683 24680
89717 95497
22901 60847
87546 85161
3557 69461
68000 78832
42687 54404
16470 49971
64438 26678
22035 81043
66658 56787
71534 54766
47234 37116
58464 62804
84623 8030
27239 71612
80786 36382
20308 37598
4236 40741
32288 31902
3996 12381
20814 7779
46367 83972
15834 45089
97767 61292
7774 97649
31622 60713
92360 57038
85489 3057
93158 85188
75096 5727
60031 41213
9806 49710
8090 82710
67598 21374
53177 48722
44579 88607
30990 98328
55739 13002
95330 36849
69820 15696
90400 15258
44566 57984
71256 99736
57080 79823
85655 62642
42416 14838
85117 71145
59894 92696
64978 62052
3646 50058
94050 92996
99976 67024
78573 75489